{
    "data": [
        {
            "kelompok_id": 1,
            "kelompok_nama": "Kelompok A (Umum)",
            "items": [
                {
                    "mapel_id": 1,
                    "mapel_nama": "Pendidikan Agama dan Budi Pekerti",
                    "is_editable": 0,
                    "kkm": null,
                    "items": [
                        {
                            "mapel_id": 2,
                            "mapel_parent_id": 1,
                            "mapel_nama": "a. Al Qur'an - Hadis",
                            "is_editable": 1,
                            "kkm": 75,
                            "items": []
                        },
                        {
                            "mapel_id": 3,
                            "mapel_parent_id": 1,
                            "mapel_nama": "b. Akidah - Akhlak",
                            "is_editable": 1,
                            "kkm": 75,
                            "items": []
                        },
                        {
                            "mapel_id": 4,
                            "mapel_parent_id": 1,
                            "mapel_nama": "c. Fikih",
                            "is_editable": 1,
                            "kkm": 75,
                            "items": []
                        },
                        {
                            "mapel_id": 5,
                            "mapel_parent_id": 1,
                            "mapel_nama": "d. Sejarah Kebudayaan Islam",
                            "is_editable": 1,
                            "kkm": 75,
                            "items": []
                        }
                    ]
                },
                {
                    "mapel_id": 6,
                    "mapel_nama": "Pendidikan Pancasila dan Kewarganegaraan",
                    "is_editable": 1,
                    "kkm": 75,
                    "items": []
                },
                {
                    "mapel_id": 7,
                    "mapel_nama": "Bahasa Indonesia",
                    "is_editable": 1,
                    "kkm": 75,
                    "items": []
                },
                {
                    "mapel_id": 8,
                    "mapel_nama": "Matematika",
                    "is_editable": 1,
                    "kkm": 75,
                    "items": []
                },
                {
                    "mapel_id": 9,
                    "mapel_nama": "Sejarah Indonesia",
                    "is_editable": 1,
                    "kkm": 75,
                    "items": []
                },
                {
                    "mapel_id": 10,
                    "mapel_nama": "Bahasa Inggris",
                    "is_editable": 1,
                    "kkm": 75,
                    "items": []
                },
                {
                    "mapel_id": 11,
                    "mapel_nama": "Bahasa Arab",
                    "is_editable": 1,
                    "kkm": 75,
                    "items": []
                }
            ]
        },
        {
            "kelompok_id": 2,
            "kelompok_nama": "Kelompok B (Umum)",
            "items": [
                {
                    "mapel_id": 12,
                    "mapel_nama": "Seni Budaya",
                    "is_editable": 1,
                    "kkm": 75,
                    "items": []
                },
                {
                    "mapel_id": 13,
                    "mapel_nama": "Pendidikan Jasmani, Olah Raga & Kesehatan",
                    "is_editable": 1,
                    "kkm": 75,
                    "items": []
                },
                {
                    "mapel_id": 14,
                    "mapel_nama": "Prakarya dan Kewirausahaan",
                    "is_editable": 1,
                    "kkm": 75,
                    "items": []
                },
                {
                    "mapel_id": 15,
                    "mapel_nama": "Kemuhammadiyahan",
                    "is_editable": 1,
                    "kkm": 75,
                    "items": []
                }
            ]
        },
        {
            "kelompok_id": 3,
            "kelompok_nama": "Kelompok C (Peminatan)",
            "items": [
                {
                    "mapel_id": 16,
                    "mapel_nama": "Matematika",
                    "is_editable": 1,
                    "kkm": 75,
                    "items": []
                },
                {
                    "mapel_id": 17,
                    "mapel_nama": "Biologi",
                    "is_editable": 1,
                    "kkm": 75,
                    "items": []
                },
                {
                    "mapel_id": 18,
                    "mapel_nama": "Fisika",
                    "is_editable": 1,
                    "kkm": 75,
                    "items": []
                },
                {
                    "mapel_id": 19,
                    "mapel_nama": "Kimia",
                    "is_editable": 1,
                    "kkm": 75,
                    "items": []
                }
            ]
        },
        {
            "kelompok_id": 4,
            "kelompok_nama": "Kelompok D (Lintas Minat)",
            "items": [
                {
                    "mapel_id": 20,
                    "mapel_nama": "Sosiologi",
                    "is_editable": 1,
                    "kkm": 75,
                    "items": []
                },
                {
                    "mapel_id": 21,
                    "mapel_nama": "Ekonomi",
                    "is_editable": 1,
                    "kkm": 75,
                    "items": []
                }
            ]
        }
    ]
}